Copyright 1986-2016 Xilinx, Inc. All Rights Reserved.
----------------------------------------------------------------------------------------------------------------------------------
| Tool Version     : Vivado v.2016.1 (lin64) Build 1538259 Fri Apr  8 15:45:23 MDT 2016
| Date             : Wed Dec 12 17:23:53 2018
| Host             : pato-UX303LN running 64-bit Ubuntu 16.04.2 LTS
| Command          : report_power -file MIPS_power_routed.rpt -pb MIPS_power_summary_routed.pb -rpx MIPS_power_routed.rpx
| Design           : MIPS
| Device           : xc7a100tcsg324-1
| Design State     : routed
| Grade            : commercial
| Process          : typical
| Characterization : Production
----------------------------------------------------------------------------------------------------------------------------------

Power Report

Table of Contents
-----------------
1. Summary
1.1 On-Chip Components
1.2 Power Supply Summary
1.3 Confidence Level
2. Settings
2.1 Environment
2.2 Clock Constraints
3. Detailed Reports
3.1 By Hierarchy

1. Summary
----------

+--------------------------+----------------------------------+
| Total On-Chip Power (W)  | 54.579 (Junction temp exceeded!) |
| Dynamic (W)              | 53.782                           |
| Device Static (W)        | 0.797                            |
| Effective TJA (C/W)      | 4.6                              |
| Max Ambient (C)          | 0.0                              |
| Junction Temperature (C) | 125.0                            |
| Confidence Level         | Low                              |
| Setting File             | ---                              |
| Simulation Activity File | ---                              |
| Design Nets Matched      | NA                               |
+--------------------------+----------------------------------+


1.1 On-Chip Components
----------------------

+--------------------------+-----------+----------+-----------+-----------------+
| On-Chip                  | Power (W) | Used     | Available | Utilization (%) |
+--------------------------+-----------+----------+-----------+-----------------+
| Slice Logic              |    29.114 |    14095 |       --- |             --- |
|   LUT as Logic           |    27.179 |     7418 |     63400 |           11.70 |
|   Register               |     1.267 |     4716 |    126800 |            3.72 |
|   F7/F8 Muxes            |     0.393 |      989 |     63400 |            1.56 |
|   CARRY4                 |     0.154 |       50 |     15850 |            0.32 |
|   LUT as Distributed RAM |     0.115 |       72 |     19000 |            0.38 |
|   BUFG                   |     0.006 |        2 |        32 |            6.25 |
|   Others                 |     0.000 |       26 |       --- |             --- |
| Signals                  |    24.425 |     7883 |       --- |             --- |
| I/O                      |     0.243 |       17 |       210 |            8.10 |
| Static Power             |     0.797 |          |           |                 |
| Total                    |    54.579 |          |           |                 |
+--------------------------+-----------+----------+-----------+-----------------+


1.2 Power Supply Summary
------------------------

+-----------+-------------+-----------+-------------+------------+
| Source    | Voltage (V) | Total (A) | Dynamic (A) | Static (A) |
+-----------+-------------+-----------+-------------+------------+
| Vccint    |       1.000 |    54.114 |      53.552 |      0.563 |
| Vccaux    |       1.800 |     0.101 |       0.008 |      0.093 |
| Vcco33    |       3.300 |     0.069 |       0.065 |      0.004 |
| Vcco25    |       2.500 |     0.000 |       0.000 |      0.000 |
| Vcco18    |       1.800 |     0.000 |       0.000 |      0.000 |
| Vcco15    |       1.500 |     0.000 |       0.000 |      0.000 |
| Vcco135   |       1.350 |     0.000 |       0.000 |      0.000 |
| Vcco12    |       1.200 |     0.000 |       0.000 |      0.000 |
| Vccaux_io |       1.800 |     0.000 |       0.000 |      0.000 |
| Vccbram   |       1.000 |     0.018 |       0.000 |      0.018 |
| MGTAVcc   |       1.000 |     0.000 |       0.000 |      0.000 |
| MGTAVtt   |       1.200 |     0.000 |       0.000 |      0.000 |
| Vccadc    |       1.800 |     0.020 |       0.000 |      0.020 |
+-----------+-------------+-----------+-------------+------------+


1.3 Confidence Level
--------------------

+-----------------------------+------------+--------------------------------------------------------+--------------------------------------------------------------------------------------------------------------------+
| User Input Data             | Confidence | Details                                                | Action                                                                                                             |
+-----------------------------+------------+--------------------------------------------------------+--------------------------------------------------------------------------------------------------------------------+
| Design implementation state | High       | Design is routed                                       |                                                                                                                    |
| Clock nodes activity        | Low        | User specified less than 75% of clocks                 | Provide missing clock activity with a constraint file, simulation results or by editing the "By Clock Domain" view |
| I/O nodes activity          | Low        | More than 75% of inputs are missing user specification | Provide missing input activity with simulation results or by editing the "By Resource Type -> I/Os" view           |
| Internal nodes activity     | Medium     | User specified less than 25% of internal nodes         | Provide missing internal nodes activity with simulation results or by editing the "By Resource Type" views         |
| Device models               | High       | Device models are Production                           |                                                                                                                    |
|                             |            |                                                        |                                                                                                                    |
| Overall confidence level    | Low        |                                                        |                                                                                                                    |
+-----------------------------+------------+--------------------------------------------------------+--------------------------------------------------------------------------------------------------------------------+


2. Settings
-----------

2.1 Environment
---------------

+-----------------------+--------------------------+
| Ambient Temp (C)      | 25.0                     |
| ThetaJA (C/W)         | 4.6                      |
| Airflow (LFM)         | 250                      |
| Heat Sink             | medium (Medium Profile)  |
| ThetaSA (C/W)         | 4.6                      |
| Board Selection       | medium (10"x10")         |
| # of Board Layers     | 12to15 (12 to 15 Layers) |
| Board Temperature (C) | 25.0                     |
+-----------------------+--------------------------+


2.2 Clock Constraints
---------------------

+-------+--------+-----------------+
| Clock | Domain | Constraint (ns) |
+-------+--------+-----------------+


3. Detailed Reports
-------------------

3.1 By Hierarchy
----------------

+-------------------------------------+-----------+
| Name                                | Power (W) |
+-------------------------------------+-----------+
| MIPS                                |    53.782 |
|   debugUnit                         |    15.150 |
|     uart                            |     0.475 |
|       baudrate                      |     0.137 |
|       rx_module                     |     0.260 |
|       tx_module                     |     0.078 |
|   hazardUnit                        |     0.002 |
|   pipeUnit                          |    38.074 |
|     EX                              |     2.655 |
|       alu_1                         |     0.150 |
|     ID                              |     6.709 |
|       DE                            |     5.944 |
|       checker                       |     0.018 |
|       regs                          |     0.435 |
|         registers_reg_r1_0_31_0_5   |     0.011 |
|         registers_reg_r1_0_31_12_17 |     0.009 |
|         registers_reg_r1_0_31_18_23 |     0.009 |
|         registers_reg_r1_0_31_24_29 |     0.013 |
|         registers_reg_r1_0_31_30_31 |     0.004 |
|         registers_reg_r1_0_31_6_11  |     0.011 |
|         registers_reg_r2_0_31_0_5   |     0.009 |
|         registers_reg_r2_0_31_12_17 |     0.010 |
|         registers_reg_r2_0_31_18_23 |     0.009 |
|         registers_reg_r2_0_31_24_29 |     0.011 |
|         registers_reg_r2_0_31_30_31 |     0.004 |
|         registers_reg_r2_0_31_6_11  |     0.010 |
|         registers_reg_r3_0_31_0_5   |     0.010 |
|         registers_reg_r3_0_31_12_17 |     0.010 |
|         registers_reg_r3_0_31_18_23 |     0.010 |
|         registers_reg_r3_0_31_24_29 |     0.011 |
|         registers_reg_r3_0_31_30_31 |     0.004 |
|         registers_reg_r3_0_31_6_11  |     0.010 |
|       spliter                       |     0.200 |
|       target                        |     0.059 |
|     IF                              |    26.157 |
|       alu_1                         |     0.096 |
|       mem                           |    25.960 |
|       pc_1                          |     0.089 |
|     MEM                             |     2.552 |
|       memory                        |     2.367 |
|       mux_1                         |     0.156 |
+-------------------------------------+-----------+


